…
|  year|  mean\_excellent\_response|  sd\_excellent\_response|
|-----:|--------------------------:|------------------------:|
|  2002|                       24.0|                      4.5|
|  2006|                       22.5|                      4.0|
|  2010|                       22.7|                      3.6|

-   **For each year and state, compute the average proportion in each response category (taking the average across locations in a state). Make a five-panel plot that shows, for each response category separately, the distribution of these state-level averages over time.** \*\*\*\*\*FINISH\*\*\*\*\*

``` r
brfss_data %>%
  group_by(year, locationabbr, response) %>% 
  summarize(mean_response = mean(data_value))
```

    ## # A tibble: 2,215 x 4
    ## # Groups:   year, locationabbr [?]
    ##     year locationabbr response  mean_response
    ##    <int> <chr>        <fct>             <dbl>
    ##  1  2002 AK           Excellent          27.9
    ##  2  2002 AK           Very good          33.7
    ##  3  2002 AK           Good               23.8
    ##  4  2002 AK           Fair                8.6
    ##  5  2002 AK           Poor                5.9
    ##  6  2002 AL           Excellent          18.5
    ##  7  2002 AL           Very good          30.9
    ##  8  2002 AL           Good               32.7
    ##  9  2002 AL           Fair               12.1
    ## 10  2002 AL           Poor                5.9
    ## # ... with 2,205 more rows
…
